…
# Fit regression model:
score_model <- lm(score ~ bty_avg, data = evals_ch5)
# Get regression table:
get_regression_table(score_model)

## # A tibble: 2 x 7
##   term      estimate std_error statistic p_value lower_ci upper_ci
##   <chr>        <dbl>     <dbl>     <dbl>   <dbl>    <dbl>    <dbl>
## 1 intercept    3.88      0.076     51.0        0    3.73     4.03 
## 2 bty_avg      0.067     0.016      4.09       0    0.035    0.099

regress_points <- get_regression_points(score_model)
regress_points

## # A tibble: 463 x 5
##       ID score bty_avg score_hat residual
##    <int> <dbl>   <dbl>     <dbl>    <dbl>
##  1     1   4.7    5         4.21    0.486
##  2     2   4.1    5         4.21   -0.114
##  3     3   3.9    5         4.21   -0.314
##  4     4   4.8    5         4.21    0.586
##  5     5   4.6    3         4.08    0.52 
##  6     6   4.3    3         4.08    0.22 
##  7     7   2.8    3         4.08   -1.28 
##  8     8   4.1    3.33      4.10   -0.002
##  9     9   3.4    3.33      4.10   -0.702
## 10    10   4.5    3.17      4.09    0.409
## # ... with 453 more rows
…
# lm(y ~ x, data)

# Compute sum of squared residuals
regression_points <- get_regression_points(score_model)
regression_points

## # A tibble: 463 x 5
##       ID score bty_avg score_hat residual
##    <int> <dbl>   <dbl>     <dbl>    <dbl>
##  1     1   4.7    5         4.21    0.486
##  2     2   4.1    5         4.21   -0.114
##  3     3   3.9    5         4.21   -0.314
##  4     4   4.8    5         4.21    0.586
##  5     5   4.6    3         4.08    0.52 
##  6     6   4.3    3         4.08    0.22 
##  7     7   2.8    3         4.08   -1.28 
##  8     8   4.1    3.33      4.10   -0.002
##  9     9   3.4    3.33      4.10   -0.702
## 10    10   4.5    3.17      4.09    0.409
## # ... with 453 more rows
…
# more roundabout method of getting the regression table aka get_regression_table

get_regression_points() function is a wrapper function for some longer code like

library(broom)
library(janitor)
score_model %>%
  augment() %>%
  mutate_if(is.numeric, round, digits = 3) %>%
  clean_names() %>%
  select(-c("std_resid", "hat", "sigma", "cooksd", "std_resid"))

## # A tibble: 463 x 4
##    score bty_avg fitted  resid
##    <dbl>   <dbl>  <dbl>  <dbl>
##  1   4.7    5      4.21  0.486
##  2   4.1    5      4.21 -0.114
##  3   3.9    5      4.21 -0.314
##  4   4.8    5      4.21  0.586
##  5   4.6    3      4.08  0.52 
##  6   4.3    3      4.08  0.22 
##  7   2.8    3      4.08 -1.28 
##  8   4.1    3.33   4.10 -0.002
##  9   3.4    3.33   4.10 -0.702
## 10   4.5    3.17   4.09  0.409
## # ... with 453 more rows
