…
library(readxl)

## Warning: package 'readxl' was built under R version 4.1.3

library(boot)

Linear Mod

set.seed(1)
# Upload data frame
real.estate <- read_excel("C:\\Users\\amoam\\Downloads\\real_estate (1).xlsx")
real.estate

## # A tibble: 414 x 8
##       No X1_transaction_date X2_house_age X3_distance_to_the_n~ X4_number_of_co~
##    <dbl>               <dbl>        <dbl>                 <dbl>            <dbl>
##  1     1               2013.         32                    84.9               10
##  2     2               2013.         19.5                 307.                 9
##  3     3               2014.         13.3                 562.                 5
##  4     4               2014.         13.3                 562.                 5
##  5     5               2013.          5                   391.                 5
##  6     6               2013.          7.1                2175.                 3
##  7     7               2013.         34.5                 623.                 7
##  8     8               2013.         20.3                 288.                 6
##  9     9               2014.         31.7                5512.                 1
## 10    10               2013.         17.9                1783.                 3
## # ... with 404 more rows, and 3 more variables: X5_latitude <dbl>,
## #   X6_longitude <dbl>, Y_house_price_of_unit_area <dbl>
…
