---
title: A02
author: ''
date: '2022-03-24'
slug: a01
categories: []
tags: []
---

# excel file reading
library(readxl)
prof_props <- read_excel(file.choose())
prof_props

## # A tibble: 440 x 9
##    Carat Colour Clarity Cut   Certification Polish Symmetry Price              
##    <dbl> <chr>  <chr>   <chr> <chr>         <chr>  <chr>    <dttm>             
##  1  0.92 I      SI2     G     AGS           V      V        1908-03-18 00:00:00
##  2  0.92 I      SI2     V     AGS           G      G        1908-03-18 00:00:00
##  3  0.82 F      SI2     I     GIA           X      X        1908-03-22 00:00:00
##  4  0.81 G      SI1     I     GIA           X      V        1908-03-22 00:00:00
##  5  0.9  J      VS2     V     GIA           V      V        1908-03-24 00:00:00
##  6  0.87 F      SI2     I     AGS           G      V        1908-03-25 00:00:00
##  7  0.8  D      SI2     I     GIA           V      V        1908-03-26 00:00:00
##  8  0.84 F      SI1     G     GIA           V      V        1908-03-28 00:00:00
##  9  0.8  D      SI2     V     GIA           V      V        1908-03-30 00:00:00
## 10  0.8  D      SI2     V     GIA           V      X        1908-03-30 00:00:00
## # ... with 430 more rows, and 1 more variable: Wholesaler <dbl>
…
