…
## Rows: 935 Columns: 26

## -- Column specification --------------------------------------------------------
## Delimiter: ","
## chr  (21): firstname, surname, category, affiliation, city, country, gender,...
## dbl   (3): id, year, share
## date  (2): born_date, died_date
## 
## i Use `spec()` to retrieve the full column specification for this data.
## i Specify the column types or set `show_col_types = FALSE` to quiet this message.

nobel

## # A tibble: 935 x 26
##       id firstname   surname  year category affiliation city  country born_date 
##    <dbl> <chr>       <chr>   <dbl> <chr>    <chr>       <chr> <chr>   <date>    
##  1     1 Wilhelm Co~ Röntgen  1901 Physics  Munich Uni~ Muni~ Germany 1845-03-27
##  2     2 Hendrik A.  Lorentz  1902 Physics  Leiden Uni~ Leid~ Nether~ 1853-07-18
##  3     3 Pieter      Zeeman   1902 Physics  Amsterdam ~ Amst~ Nether~ 1865-05-25
##  4     4 Henri       Becque~  1903 Physics  École Poly~ Paris France  1852-12-15
##  5     5 Pierre      Curie    1903 Physics  École muni~ Paris France  1859-05-15
##  6     6 Marie       Curie    1903 Physics  <NA>        <NA>  <NA>    1867-11-07
##  7     6 Marie       Curie    1911 Chemist~ Sorbonne U~ Paris France  1867-11-07
##  8     8 Lord        Raylei~  1904 Physics  Royal Inst~ Lond~ United~ 1842-11-12
##  9     9 Philipp     Lenard   1905 Physics  Kiel Unive~ Kiel  Germany 1862-06-07
## 10    10 J.J.        Thomson  1906 Physics  University~ Camb~ United~ 1856-12-18
## # ... with 925 more rows, and 17 more variables: died_date <date>,
## #   gender <chr>, born_city <chr>, born_country <chr>, born_country_code <chr>,
## #   died_city <chr>, died_country <chr>, died_country_code <chr>,
## #   overall_motivation <chr>, share <dbl>, motivation <chr>,
## #   born_country_original <chr>, born_city_original <chr>,
## #   died_country_original <chr>, died_city_original <chr>, city_original <chr>,
## #   country_original <chr>
…
sales <- read.csv(file = "https://raw.githubusercontent.com/miaamato/tidyverse/main/sales.csv")
sales

##   ï..Brand Item n
## 1       B1 1234 8
## 2       B1 8721 2
## 3       B1 1822 3
## 4       B2 3333 1
## 5       B2 2156 3
## 6       B2 3987 6
## 7       B2 3216 5

nobel

## # A tibble: 935 x 26
##       id firstname   surname  year category affiliation city  country born_date 
##    <dbl> <chr>       <chr>   <dbl> <chr>    <chr>       <chr> <chr>   <date>    
##  1     1 Wilhelm Co~ Röntgen  1901 Physics  Munich Uni~ Muni~ Germany 1845-03-27
##  2     2 Hendrik A.  Lorentz  1902 Physics  Leiden Uni~ Leid~ Nether~ 1853-07-18
##  3     3 Pieter      Zeeman   1902 Physics  Amsterdam ~ Amst~ Nether~ 1865-05-25
##  4     4 Henri       Becque~  1903 Physics  École Poly~ Paris France  1852-12-15
##  5     5 Pierre      Curie    1903 Physics  École muni~ Paris France  1859-05-15
##  6     6 Marie       Curie    1903 Physics  <NA>        <NA>  <NA>    1867-11-07
##  7     6 Marie       Curie    1911 Chemist~ Sorbonne U~ Paris France  1867-11-07
##  8     8 Lord        Raylei~  1904 Physics  Royal Inst~ Lond~ United~ 1842-11-12
##  9     9 Philipp     Lenard   1905 Physics  Kiel Unive~ Kiel  Germany 1862-06-07
## 10    10 J.J.        Thomson  1906 Physics  University~ Camb~ United~ 1856-12-18
## # ... with 925 more rows, and 17 more variables: died_date <date>,
## #   gender <chr>, born_city <chr>, born_country <chr>, born_country_code <chr>,
## #   died_city <chr>, died_country <chr>, died_country_code <chr>,
## #   overall_motivation <chr>, share <dbl>, motivation <chr>,
## #   born_country_original <chr>, born_city_original <chr>,
## #   died_country_original <chr>, died_city_original <chr>, city_original <chr>,
## #   country_original <chr>

stem

nobel_stem <- nobel %>%
  filter(category %in% c("Medicine", "Chemistry", "Economics", "Physics"))
nobel_stem

## # A tibble: 688 x 26
##       id firstname   surname  year category affiliation city  country born_date 
##    <dbl> <chr>       <chr>   <dbl> <chr>    <chr>       <chr> <chr>   <date>    
##  1     1 Wilhelm Co~ Röntgen  1901 Physics  Munich Uni~ Muni~ Germany 1845-03-27
##  2     2 Hendrik A.  Lorentz  1902 Physics  Leiden Uni~ Leid~ Nether~ 1853-07-18
##  3     3 Pieter      Zeeman   1902 Physics  Amsterdam ~ Amst~ Nether~ 1865-05-25
##  4     4 Henri       Becque~  1903 Physics  École Poly~ Paris France  1852-12-15
##  5     5 Pierre      Curie    1903 Physics  École muni~ Paris France  1859-05-15
##  6     6 Marie       Curie    1903 Physics  <NA>        <NA>  <NA>    1867-11-07
##  7     6 Marie       Curie    1911 Chemist~ Sorbonne U~ Paris France  1867-11-07
##  8     8 Lord        Raylei~  1904 Physics  Royal Inst~ Lond~ United~ 1842-11-12
##  9     9 Philipp     Lenard   1905 Physics  Kiel Unive~ Kiel  Germany 1862-06-07
## 10    10 J.J.        Thomson  1906 Physics  University~ Camb~ United~ 1856-12-18
## # ... with 678 more rows, and 17 more variables: died_date <date>,
## #   gender <chr>, born_city <chr>, born_country <chr>, born_country_code <chr>,
## #   died_city <chr>, died_country <chr>, died_country_code <chr>,
## #   overall_motivation <chr>, share <dbl>, motivation <chr>,
## #   born_country_original <chr>, born_city_original <chr>,
## #   died_country_original <chr>, died_city_original <chr>, city_original <chr>,
## #   country_original <chr>

nonstem

nobel["category"]

## # A tibble: 935 x 1
##    category 
##    <chr>    
##  1 Physics  
##  2 Physics  
##  3 Physics  
##  4 Physics  
##  5 Physics  
##  6 Physics  
##  7 Chemistry
##  8 Physics  
##  9 Physics  
## 10 Physics  
## # ... with 925 more rows

nobel_nonstem <- nobel %>%
  filter(category %in% c("Peace", "Literature"))
nobel_nonstem

## # A tibble: 247 x 26
##       id firstname   surname  year category affiliation city  country born_date 
##    <dbl> <chr>       <chr>   <dbl> <chr>    <chr>       <chr> <chr>   <date>    
##  1   217 Linus       Pauling  1962 Peace    California~ Pasa~ USA     1901-02-28
##  2   462 Henry       Dunant   1901 Peace    <NA>        <NA>  <NA>    1828-05-08
##  3   463 Frédéric    Passy    1901 Peace    <NA>        <NA>  <NA>    1822-05-20
##  4   464 Élie        Ducomm~  1902 Peace    <NA>        <NA>  <NA>    1833-02-19
##  5   465 Albert      Gobat    1902 Peace    <NA>        <NA>  <NA>    1843-05-21
##  6   466 Randal      Cremer   1903 Peace    <NA>        <NA>  <NA>    1828-03-18
##  7   467 Institute ~ <NA>     1904 Peace    <NA>        <NA>  <NA>    NA        
##  8   468 Bertha      von Su~  1905 Peace    <NA>        <NA>  <NA>    1843-06-09
##  9   470 Theodore    Roosev~  1906 Peace    <NA>        <NA>  <NA>    1858-10-27
## 10   471 Ernesto Te~ Moneta   1907 Peace    <NA>        <NA>  <NA>    1833-09-20
## # ... with 237 more rows, and 17 more variables: died_date <date>,
## #   gender <chr>, born_city <chr>, born_country <chr>, born_country_code <chr>,
## #   died_city <chr>, died_country <chr>, died_country_code <chr>,
## #   overall_motivation <chr>, share <dbl>, motivation <chr>,
## #   born_country_original <chr>, born_city_original <chr>,
## #   died_country_original <chr>, died_city_original <chr>, city_original <chr>,
## #   country_original <chr>
…
