…
# excel file reading
library(readxl)

## Warning: package 'readxl' was built under R version 4.1.3

prof_props <- read_excel("C:\\Users\\amoam\\Downloads\\Professor_Proposes_Data.xlsx")
prof_props

## # A tibble: 440 x 9
##    Carat Colour Clarity Cut   Certification Polish Symmetry Price              
##    <dbl> <chr>  <chr>   <chr> <chr>         <chr>  <chr>    <dttm>             
##  1  0.92 I      SI2     G     AGS           V      V        1908-03-18 00:00:00
##  2  0.92 I      SI2     V     AGS           G      G        1908-03-18 00:00:00
##  3  0.82 F      SI2     I     GIA           X      X        1908-03-22 00:00:00
##  4  0.81 G      SI1     I     GIA           X      V        1908-03-22 00:00:00
##  5  0.9  J      VS2     V     GIA           V      V        1908-03-24 00:00:00
##  6  0.87 F      SI2     I     AGS           G      V        1908-03-25 00:00:00
##  7  0.8  D      SI2     I     GIA           V      V        1908-03-26 00:00:00
##  8  0.84 F      SI1     G     GIA           V      V        1908-03-28 00:00:00
##  9  0.8  D      SI2     V     GIA           V      V        1908-03-30 00:00:00
## 10  0.8  D      SI2     V     GIA           V      X        1908-03-30 00:00:00
## # ... with 430 more rows, and 1 more variable: Wholesaler <dbl>
…
attach(prof_props)

Attempt to transform descriptive data into metric

prof_props$Certification <- as.factor(Certification)
prof_props$Clarity <- as.factor(Clarity)
prof_props$Cut <- as.factor(Cut)
prof_props$Symmetry <- as.factor(Symmetry)
prof_props$Wholesaler <- as.factor(Wholesaler)
prof_props$Polish <- as.factor(Polish)
prof_props$Colour <- as.factor(Colour)
prof_props

## # A tibble: 440 x 9
##    Carat Colour Clarity Cut   Certification Polish Symmetry Price              
##    <dbl> <fct>  <fct>   <fct> <fct>         <fct>  <fct>    <dttm>             
##  1  0.92 I      SI2     G     AGS           V      V        1908-03-18 00:00:00
##  2  0.92 I      SI2     V     AGS           G      G        1908-03-18 00:00:00
##  3  0.82 F      SI2     I     GIA           X      X        1908-03-22 00:00:00
##  4  0.81 G      SI1     I     GIA           X      V        1908-03-22 00:00:00
##  5  0.9  J      VS2     V     GIA           V      V        1908-03-24 00:00:00
##  6  0.87 F      SI2     I     AGS           G      V        1908-03-25 00:00:00
##  7  0.8  D      SI2     I     GIA           V      V        1908-03-26 00:00:00
##  8  0.84 F      SI1     G     GIA           V      V        1908-03-28 00:00:00
##  9  0.8  D      SI2     V     GIA           V      V        1908-03-30 00:00:00
## 10  0.8  D      SI2     V     GIA           V      X        1908-03-30 00:00:00
## # ... with 430 more rows, and 1 more variable: Wholesaler <fct>
…
<img src="{{< blogdown/postref >}}index_files/figure-html/unnamed-chunk-19-1.png" width="672" />
### Carat
>>> Already numeric

ggplot(prof_props, aes(x = Carat, fill = Carat)) +
  geom_histogram(binwidth = 20, stat = "count") +
  scale_fill_hue(c=45, l=80)

## Warning: Ignoring unknown parameters: binwidth, bins, pad

<img src="{{< blogdown/postref >}}index_files/figure-html/unnamed-chunk-20-1.png" width="672" />

count(prof_props, Carat)

## # A tibble: 50 x 2
##    Carat     n
##    <dbl> <int>
##  1  0.09     5
##  2  0.1     13
##  3  0.11     5
##  4  0.2      1
##  5  0.21     7
##  6  0.22     5
##  7  0.23     7
##  8  0.27     1
##  9  0.28     2
## 10  0.3    154
## # ... with 40 more rows
…
