…
library(readxl)

## Warning: package 'readxl' was built under R version 4.1.3

library(boot)

Linear Mod

set.seed(1)
# Upload data frame
real.estate <- read_excel(file.choose())
real.estate

## # A tibble: 414 x 8
##       No  X1td  X2ha X3dttnms X4nocs X5lat X6long Yhpoua
##    <dbl> <dbl> <dbl>    <dbl>  <dbl> <dbl>  <dbl>  <dbl>
##  1     1 2013.  32       84.9     10  25.0   122.   37.9
##  2     2 2013.  19.5    307.       9  25.0   122.   42.2
##  3     3 2014.  13.3    562.       5  25.0   122.   47.3
##  4     4 2014.  13.3    562.       5  25.0   122.   54.8
##  5     5 2013.   5      391.       5  25.0   122.   43.1
##  6     6 2013.   7.1   2175.       3  25.0   122.   32.1
##  7     7 2013.  34.5    623.       7  25.0   122.   40.3
##  8     8 2013.  20.3    288.       6  25.0   122.   46.7
##  9     9 2014.  31.7   5512.       1  25.0   121.   18.8
## 10    10 2013.  17.9   1783.       3  25.0   122.   22.1
## # ... with 404 more rows
…
