…
full <- left_join(masked, unmasked)

## Joining, by = "date"

full

## # A tibble: 23 x 3
##    date      masked unmasked
##    <chr>      <dbl>    <dbl>
##  1 7/12/2020   25.5     9.9 
##  2 7/13/2020   19.8     9.1 
##  3 7/14/2020   19.8     9.6 
##  4 7/15/2020   20.5     9.9 
##  5 7/16/2020   19.8     9.92
##  6 7/17/2020   19.8     9.6 
##  7 7/18/2020   20.5     9.6 
##  8 7/19/2020   19.9     9.1 
##  9 7/20/2020   20.7     8.5 
## 10 7/21/2020   21.2     8.5 
## # ... with 13 more rows
…
